%!PS-Adobe-3.0 EPSF-3.0
%%Creator: cairo 1.14.1 (http://cairographics.org)
%%CreationDate: Tue Apr 21 21:26:50 2015
%%Pages: 1
%%DocumentData: Clean7Bit
%%LanguageLevel: 2
%%BoundingBox: 15 11 946 516
%%EndComments
%%BeginProlog
save
50 dict begin
/q { gsave } bind def
/Q { grestore } bind def
/cm { 6 array astore concat } bind def
/w { setlinewidth } bind def
/J { setlinecap } bind def
/j { setlinejoin } bind def
/M { setmiterlimit } bind def
/d { setdash } bind def
/m { moveto } bind def
/l { lineto } bind def
/c { curveto } bind def
/h { closepath } bind def
/re { exch dup neg 3 1 roll 5 3 roll moveto 0 rlineto
      0 exch rlineto 0 rlineto closepath } bind def
/S { stroke } bind def
/f { fill } bind def
/f* { eofill } bind def
/n { newpath } bind def
/W { clip } bind def
/W* { eoclip } bind def
/BT { } bind def
/ET { } bind def
/pdfmark where { pop globaldict /?pdfmark /exec load put }
    { globaldict begin /?pdfmark /pop load def /pdfmark
    /cleartomark load def end } ifelse
/BDC { mark 3 1 roll /BDC pdfmark } bind def
/EMC { mark /EMC pdfmark } bind def
/cairo_store_point { /cairo_point_y exch def /cairo_point_x exch def } def
/Tj { show currentpoint cairo_store_point } bind def
/TJ {
  {
    dup
    type /stringtype eq
    { show } { -0.001 mul 0 cairo_font_matrix dtransform rmoveto } ifelse
  } forall
  currentpoint cairo_store_point
} bind def
/cairo_selectfont { cairo_font_matrix aload pop pop pop 0 0 6 array astore
    cairo_font exch selectfont cairo_point_x cairo_point_y moveto } bind def
/Tf { pop /cairo_font exch def /cairo_font_matrix where
      { pop cairo_selectfont } if } bind def
/Td { matrix translate cairo_font_matrix matrix concatmatrix dup
      /cairo_font_matrix exch def dup 4 get exch 5 get cairo_store_point
      /cairo_font where { pop cairo_selectfont } if } bind def
/Tm { 2 copy 8 2 roll 6 array astore /cairo_font_matrix exch def
      cairo_store_point /cairo_font where { pop cairo_selectfont } if } bind def
/g { setgray } bind def
/rg { setrgbcolor } bind def
/d1 { setcachedevice } bind def
%%EndProlog
%%BeginSetup
%%EndSetup
%%Page: 1 1
%%BeginPageSetup
%%PageBoundingBox: 15 11 946 516
%%EndPageSetup
q 15 11 931 505 rectclip q
0 g
1.622404 w
0 J
1 j
[ 6.489614 4.86721] 0 d
10 M 153.695 188.75 m 71.977 286.293 l S
[ 6.489614 4.86721] 0 d
154.16 189.73 m 177.52 40.734 l S
[ 6.489614 4.86721] 0 d
754.227 263.199 m 751.148 487.898 l S
[ 6.489614 4.86721] 0 d
754.246 262.578 m 768.754 165.785 l S
0.317647 0.498039 0.2 rg
15.848 237.512 m 20.219 242.309 l 24.609 246.996 l 24.691 247.082 l 26.809
 244.625 l 26.781 244.57 l 22.406 239.902 l 18.016 235.137 l h
31.504 254.02 m 33.422 255.973 l 40.781 263.086 l 42.832 260.516 l 35.543
 253.516 l 33.605 251.539 l h
47.969 269.641 m 51.41 272.75 l 57.742 278.078 l 59.629 275.395 l 53.402
 270.125 l 49.938 267.016 l h
65.23 284.176 m 70.301 288.191 l 75.438 291.973 l 77.176 289.184 l 72.105
 285.422 l 67.039 281.418 l h
83.223 297.621 m 85.363 299.141 l 90.59 302.703 l 93.762 304.824 l 95.395
 301.91 l 92.238 299.828 l 87.047 296.297 l 84.898 294.766 l h
101.809 310.016 m 106.996 313.262 l 112.629 316.68 l 114.152 313.711 l 
108.551 310.328 l 103.352 307.082 l h
120.848 321.512 m 124.703 323.738 l 130.93 327.234 l 131.91 327.773 l 133.285
 324.73 l 132.355 324.211 l 126.176 320.75 l 122.32 318.512 l h
140.23 332.297 m 143.902 334.27 l 150.648 337.855 l 151.426 338.219 l 152.738
 335.176 l 152.02 334.777 l 145.277 331.25 l 141.602 329.273 l h
159.844 342.566 m 164.762 345.082 l 171.09 348.277 l 172.414 345.203 l 
166.074 342.035 l 161.137 339.52 l h
179.59 352.48 m 179.723 352.57 l 187.555 356.375 l 190.938 357.984 l 192.18
 354.906 l 188.816 353.273 l 181.012 349.457 l 180.863 349.402 l h
199.438 362.078 m 203.961 364.262 l 210.813 367.535 l 212.055 364.426 l
 205.203 361.148 l 200.711 358.977 l h
219.344 371.594 m 230.66 376.988 l 230.711 377.02 l 231.953 373.91 l 231.902
 373.887 l 220.578 368.496 l h
239.262 381.059 m 249.762 386 l 250.66 386.418 l 251.883 383.32 l 251.004
 382.891 l 240.484 377.926 l h
259.223 390.398 m 269.789 395.285 l 270.668 395.684 l 271.852 392.551 l
 270.973 392.176 l 260.434 387.27 l h
279.25 399.578 m 290.586 404.75 l 290.719 404.773 l 291.879 401.641 l 291.809
 401.605 l 280.43 396.445 l h
299.348 408.609 m 310.828 413.695 l 311.988 410.563 l 300.512 405.457 l
 h
319.508 417.422 m 331.059 422.395 l 332.199 419.23 l 320.648 414.289 l 
h
339.77 426.035 m 351.348 430.832 l 352.461 427.648 l 340.859 422.871 l 
h
360.113 434.398 m 371.762 438.996 l 372.82 435.809 l 361.172 431.199 l 
h
380.555 442.438 m 392.254 446.871 l 393.266 443.648 l 381.563 439.25 l 
h
401.066 450.18 m 402.621 450.742 l 412.879 454.383 l 413.84 451.16 l 403.633
 447.555 l 402.078 446.961 l h
421.742 457.516 m 425.832 458.961 l 433.637 461.496 l 434.512 458.254 l
 426.789 455.738 l 422.703 454.273 l h
442.551 464.406 m 449.063 466.547 l 454.492 468.156 l 455.32 464.914 l 
449.938 463.305 l 443.426 461.152 l h
463.488 470.848 m 472.168 473.441 l 475.5 474.313 l 476.246 471.035 l 472.996
 470.164 l 464.285 467.574 l h
484.547 476.75 m 495.043 479.539 l 496.668 479.902 l 497.285 476.574 l 
495.793 476.242 l 485.273 473.441 l h
505.766 482 m 517.598 484.711 l 517.961 484.77 l 518.484 481.438 l 518.242
 481.402 l 506.41 478.668 l h
527.137 486.488 m 539.363 488.773 l 539.875 485.441 l 527.652 483.156 l
 h
548.609 490.215 m 550.609 490.492 l 560.965 491.848 l 561.328 488.496 l
 551.023 487.16 l 549.055 486.852 l h
570.242 492.863 m 571.949 493.039 l 582.469 493.945 l 582.68 493.945 l 
582.852 490.547 l 582.699 490.547 l 572.23 489.676 l 570.555 489.477 l h
591.977 494.563 m 592.855 494.617 l 603.172 495.07 l 604.414 495.125 l 
604.484 491.738 l 603.273 491.684 l 593.039 491.23 l 592.16 491.176 l h
613.742 495.379 m 623.453 495.488 l 626.172 495.488 l 626.141 492.102 l
 623.484 492.102 l 613.762 491.992 l h
635.477 495.434 m 643.414 495.324 l 647.906 495.18 l 647.824 491.793 l 
643.352 491.938 l 635.449 492.047 l h
657.215 494.871 m 663.078 494.707 l 669.641 494.398 l 669.488 491 l 662.969
 491.32 l 657.102 491.484 l h
678.918 493.945 m 682.461 493.77 l 691.324 493.262 l 691.164 489.875 l 
682.301 490.383 l 678.785 490.547 l h
700.621 492.73 m 701.633 492.664 l 713.008 491.961 l 712.828 488.605 l 
701.48 489.277 l 700.441 489.336 l h
722.285 491.43 m 734.684 490.746 l 734.531 487.359 l 722.125 488.043 l 
h
743.973 490.293 m 756.348 489.785 l 756.246 486.398 l 743.84 486.906 l 
h
765.625 489.512 m 767.664 489.457 l 777.043 489.277 l 778 489.313 l 778
 485.926 l 776.992 485.926 l 767.582 486.059 l 765.543 486.125 l h
787.277 489.313 m 795.781 489.422 l 799.656 489.566 l 799.738 486.18 l 
795.828 486.035 l 787.309 485.926 l h
808.934 489.93 m 814.598 490.215 l 821.289 490.691 l 821.473 487.336 l 
814.75 486.852 l 809.066 486.543 l h
830.516 491.508 m 833.484 491.828 l 842.824 492.918 l 843.156 489.566 l
 833.746 488.43 l 830.801 488.152 l h
824.602 500.121 m 852.715 492.664 l 827.367 477.391 l 826.609 476.949 825.68
 477.258 825.266 478.074 c 824.852 478.891 825.117 479.902 825.863 480.355
 c 847.73 493.516 l 848.113 490.414 l 823.844 496.824 l 823.027 497.043 
822.5 497.98 822.715 498.887 c 822.914 499.789 823.742 500.352 824.602 500.121
 c h
824.602 500.121 m f
0.74902 0 0 rg
887.605 228.078 m 882.387 224.75 l 877.602 221.641 l 876.953 221.188 l 
875.359 224.098 l 876.004 224.551 l 880.832 227.684 l 886.051 231.016 l 
h
869 215.957 m 865.195 213.422 l 861.629 211.016 l 858.449 208.844 l 856.793
 211.699 l 860.004 213.906 l 863.57 216.301 l 867.375 218.848 l h
850.574 203.43 m 849.566 202.723 l 846.871 200.949 l 844.348 199.215 l 
839.977 196.336 l 838.371 199.25 l 842.711 202.094 l 845.246 203.824 l 847.879
 205.57 l 848.922 206.309 l h
831.758 191.375 m 829.457 190.074 l 826.773 188.629 l 823.926 187.16 l 
820.977 185.672 l 820.461 185.441 l 819.25 188.551 l 819.684 188.75 l 822.613
 190.238 l 825.398 191.648 l 828.012 193.063 l 830.305 194.395 l h
811.859 181.492 m 810.77 181.008 l 806.875 179.32 l 802.652 177.566 l 800.25
 176.574 l 799.172 179.738 l 801.543 180.73 l 805.734 182.473 l 809.609 
184.137 l 810.691 184.625 l h
791.488 173.074 m 787.906 171.664 l 782.191 169.457 l 779.809 168.531 l
 778.777 171.719 l 781.152 172.645 l 786.844 174.852 l 790.461 176.262 l
 h
770.996 165.223 m 769.371 164.605 l 762.293 162.004 l 759.184 160.934 l
 758.254 164.152 l 761.305 165.223 l 768.359 167.824 l 769.984 168.41 l 
h
750.301 157.887 m 747.09 156.809 l 738.973 154.215 l 738.387 154.016 l 
737.531 157.262 l 738.125 157.457 l 746.191 160.063 l 749.391 161.133 l 
h
729.414 151.25 m 721.941 148.965 l 717.449 147.633 l 716.652 150.906 l 
721.117 152.242 l 728.566 154.523 l h
708.457 145.008 m 703.801 143.629 l 696.465 141.531 l 695.664 144.809 l
 703.004 146.902 l 707.66 148.262 l h
687.449 138.961 m 684.703 138.18 l 675.426 135.574 l 674.656 138.852 l 
683.934 141.453 l 686.672 142.238 l h
666.441 133.039 m 664.785 132.586 l 654.395 129.707 l 653.641 132.984 l
 664.008 135.863 l 665.664 136.336 l h
645.371 127.195 m 644.129 126.852 l 633.379 123.828 l 632.602 127.105 l
 643.352 130.129 l 644.625 130.469 l h
624.363 121.293 m 622.891 120.863 l 612.371 117.875 l 611.574 121.184 l
 622.113 124.172 l 623.586 124.57 l h
603.355 115.336 m 601.184 114.707 l 591.383 111.863 l 590.586 115.105 l
 600.406 117.984 l 602.578 118.613 l h
582.387 109.203 m 579.137 108.277 l 570.426 105.652 l 569.629 108.918 l
 578.309 111.52 l 581.59 112.48 l h
561.461 102.941 m 556.836 101.551 l 549.547 99.266 l 548.691 102.508 l 
556.027 104.824 l 560.633 106.215 l h
540.605 96.445 m 534.457 94.492 l 528.742 92.605 l 527.832 95.848 l 533.598
 97.766 l 539.746 99.688 l h
519.828 89.672 m 512.094 87.125 l 507.984 85.691 l 507.059 88.898 l 511.195
 90.379 l 518.918 92.914 l h
499.121 82.613 m 489.875 79.359 l 487.363 78.434 l 486.352 81.652 l 488.918
 82.578 l 498.195 85.82 l h
478.547 75.156 m 467.91 71.195 l 466.848 70.777 l 465.789 73.945 l 466.898
 74.395 l 477.539 78.379 l h
458.105 67.27 m 446.457 62.648 l 445.395 65.805 l 457.047 70.469 l h
437.645 59.285 m 435.391 58.438 l 425.699 55.359 l 424.82 58.613 l 434.383
 61.625 l 436.633 62.473 l h
416.605 52.844 m 412.133 51.633 l 404.43 49.945 l 403.813 53.273 l 411.387
 54.941 l 415.879 56.121 l h
395.234 48.102 m 387.398 46.723 l 382.926 46.039 l 382.512 49.402 l 386.883
 50.055 l 394.719 51.465 l h
373.648 44.75 m 361.453 43.305 l 361.273 43.305 l 361.012 46.668 l 361.121
 46.668 l 373.316 48.102 l h
352.027 42.434 m 348.09 42.059 l 339.59 41.551 l 339.406 44.945 l 347.836
 45.453 l 351.762 45.82 l h
330.313 40.988 m 320.801 40.426 l 317.883 40.336 l 317.781 43.699 l 320.621
 43.813 l 330.129 44.375 l h
308.574 40.027 m 296.168 39.633 l 296.066 43.016 l 308.477 43.414 l h
286.84 39.434 m 274.434 39.266 l 274.414 42.652 l 286.82 42.828 l h
265.137 39.156 m 264.672 39.156 l 252.73 39.07 l 252.699 42.453 l 264.621
 42.543 l 265.105 42.543 l h
243.422 39.012 m 236.344 38.98 l 231.023 38.926 l 230.996 42.313 l 236.344
 42.379 l 243.402 42.398 l h
221.719 38.816 m 209.309 38.703 l 209.289 42.09 l 221.688 42.199 l h
200.031 38.473 m 187.625 38.195 l 187.555 41.582 l 199.961 41.859 l h
178.348 37.91 m 165.973 37.293 l 165.82 40.68 l 178.227 41.297 l h
156.676 36.84 m 153.465 36.664 l 144.367 35.848 l 144.105 39.234 l 153.332
 40.063 l 156.543 40.227 l h
135.09 35.031 m 127.418 34.359 l 122.785 33.762 l 122.43 37.117 l 127.156
 37.711 l 134.828 38.418 l h
113.617 32.516 m 102.555 30.742 l 101.395 30.508 l 100.848 33.84 l 102.09
 34.094 l 113.145 35.883 l h
92.238 28.711 m 90.641 28.371 l 80.172 25.855 l 79.496 29.152 l 90.066 
31.699 l 91.703 32.043 l h
71.258 23.254 m 68.047 22.324 l 59.469 19.305 l 58.52 22.523 l 67.25 25.602
 l 70.43 26.527 l h
50.836 15.809 m 47.324 14.309 l 41.609 11.43 l 40.316 14.504 l 46.211 17.473
 l 49.727 18.961 l h
65.98 12.984 m 37.086 11 l 57.176 33.785 l 57.762 34.469 58.75 34.469 59.367
 33.84 c 59.961 33.199 59.992 32.121 59.398 31.445 c 42.105 11.793 l 40.891
 14.648 l 65.777 16.371 l 66.625 16.426 67.383 15.719 67.434 14.781 c 67.484
 13.855 66.836 13.039 65.98 12.984 c h
65.98 12.984 m f
0 g
754.023 276.699 m 753.586 276.695 753.145 276.664 752.703 276.609 c 746.387
 275.836 741.668 270.238 741.238 263.555 c 171.148 193.914 l 178.398 206.453
 l 154.16 189.277 l 181.277 178.383 l 171.688 188.855 l 741.75 258.523 l
 743.516 252.105 749.25 247.766 755.57 248.551 c 762.648 249.422 767.766
 256.395 766.969 264.156 c 766.238 271.418 760.559 276.785 754.023 276.699
 c h
754.023 276.699 m f
1 g
0.8 w
0 j
[] 0.0 d
4 M q 1 0 0 -1 0 540 cm
754.023 263.301 m 753.586 263.305 753.145 263.336 752.703 263.391 c 746.387
 264.164 741.668 269.762 741.238 276.445 c 171.148 346.086 l 178.398 333.547
 l 154.16 350.723 l 181.277 361.617 l 171.688 351.145 l 741.75 281.477 l
 743.516 287.895 749.25 292.234 755.57 291.449 c 762.648 290.578 767.766
 283.605 766.969 275.844 c 766.238 268.582 760.559 263.215 754.023 263.301
 c h
754.023 263.301 m S Q
0.317647 0.498039 0.2 rg
724.477 494.141 m 735.43 485.398 l 71.359 288.5 l 72.602 283.59 l 736.656
 480.477 l 731.25 466.891 l 752.805 487.898 l h
737.824 483.484 m 737.844 483.469 l 737.836 483.441 l h
737.824 483.484 m f
1 g
q 1 0 0 -1 0 540 cm
724.477 45.859 m 735.43 54.602 l 71.359 251.5 l 72.602 256.41 l 736.656
 59.523 l 731.25 73.109 l 752.805 52.102 l h
737.824 56.516 m 737.844 56.531 l 737.836 56.559 l h
737.824 56.516 m S Q
0.74902 0 0 rg
768.773 168.5 m 194.016 46.621 l 200.316 59.77 l 177.422 40.516 l 205.25
 32.043 l 194.93 41.633 l 769.652 163.535 l h
192.645 43.758 m 192.645 43.754 l h
192.645 43.758 m f
1 g
q 1 0 0 -1 0 540 cm
768.773 371.5 m 194.016 493.379 l 200.316 480.23 l 177.422 499.484 l 205.25
 507.957 l 194.93 498.367 l 769.652 376.465 l h
192.645 496.242 m 192.645 496.246 l h
192.645 496.242 m S Q
0.317647 0.498039 0.2 rg
881.137 495.371 m 881.945 494.688 882.59 493.895 883.074 492.988 c 883.578
 492.074 883.984 490.793 884.285 489.152 c 884.891 485.973 l 885.055 484.938
 885.254 484.012 885.496 483.195 c 885.738 482.402 886.023 481.762 886.344
 481.297 c 886.668 480.824 887.031 480.473 887.434 480.238 c 887.859 479.996
 888.465 479.809 889.254 479.664 c 889.012 478.297 l 882.023 478.297 l 881.48
 479.941 880.996 481.895 880.57 484.164 c 879.48 489.988 l 879.289 490.98
 879.055 491.82 878.793 492.504 c 878.551 493.211 878.238 493.75 877.867
 494.137 c 877.512 494.512 877.098 494.766 876.613 494.887 c 876.129 494.996
 875.535 495.063 874.836 495.063 c 871.969 495.063 l 870.191 486.328 l 870.051
 485.621 869.949 485.047 869.871 484.605 c 869.809 484.188 869.758 483.746
 869.707 483.285 c 869.68 482.809 869.668 482.379 869.668 482.004 c 869.668
 481.441 869.75 481 869.91 480.68 c 870.094 480.348 870.355 480.117 870.676
 479.973 c 871.02 479.82 871.605 479.723 872.414 479.664 c 872.172 478.297
 l 861.793 478.297 l 862.078 479.664 l 862.691 479.754 863.168 479.91 863.488
 480.152 c 863.813 480.414 864.074 480.77 864.297 481.211 c 864.508 481.652
 864.711 482.18 864.902 482.797 c 865.086 483.438 865.367 484.672 865.75
 486.504 c 870.031 507.77 l 870.406 509.59 870.598 511.035 870.598 512.094
 c 870.598 512.996 870.395 513.637 869.992 513.988 c 869.609 514.344 868.992
 514.539 868.133 514.605 c 868.375 515.93 l 879.641 515.93 l 881.418 515.93
 882.871 515.809 884.004 515.578 c 885.133 515.367 886.082 515.027 886.871
 514.563 c 887.68 514.09 888.344 513.48 888.891 512.754 c 889.426 512.047
 889.828 511.23 890.102 510.328 c 890.363 509.41 890.504 508.441 890.504
 507.414 c 890.504 504.594 889.707 502.176 888.121 500.18 c 886.527 498.207
 884.203 496.707 881.137 495.68 c h
875.441 497.445 m 877.867 497.445 879.773 497.797 881.176 498.504 c 882.602
 499.23 883.73 500.41 884.57 502.035 c 885.395 503.676 885.82 505.441 885.82
 507.328 c 885.82 508.121 885.75 508.828 885.617 509.445 c 885.477 510.063
 885.297 510.559 885.055 510.945 c 884.832 511.352 884.547 511.719 884.203
 512.047 c 883.883 512.367 883.457 512.633 882.953 512.844 c 882.469 513.074
 881.883 513.238 881.219 513.328 c 880.57 513.438 879.664 513.504 878.512
 513.504 c 877.621 513.504 876.676 513.473 875.684 513.414 c 872.453 497.445
 l h
875.441 497.445 m f
902.723 471.559 m 902.723 471.137 902.734 470.785 902.766 470.496 c 902.785
 470.199 902.824 469.945 902.887 469.746 c 902.938 469.57 903.008 469.406
 903.086 469.262 c 903.168 469.109 903.258 468.996 903.371 468.91 c 903.531
 468.734 903.715 468.602 903.934 468.512 c 904.176 468.445 904.469 468.391
 904.824 468.336 c 905.195 468.27 905.641 468.227 906.156 468.203 c 906.66
 468.172 907.285 468.137 908.012 468.117 c 908.012 466.438 l 894 466.438
 l 894 468.117 l 894.699 468.137 895.293 468.172 895.777 468.203 c 896.262
 468.227 896.668 468.27 896.988 468.336 c 897.332 468.391 897.617 468.445
 897.836 468.512 c 898.051 468.602 898.223 468.688 898.363 468.777 c 898.523
 468.887 898.656 469.02 898.766 469.176 c 898.898 469.316 898.988 469.496
 899.051 469.703 c 899.129 469.902 899.18 470.156 899.211 470.453 c 899.262
 470.742 899.293 471.117 899.293 471.559 c 899.293 485.367 l 899.293 485.863
 899.191 486.215 899.008 486.426 c 898.848 486.625 898.605 486.734 898.281
 486.734 c 897.898 486.734 897.352 486.523 896.625 486.117 c 895.918 485.695
 895.012 485.102 893.879 484.309 c 893.719 484.594 893.566 484.891 893.438
 485.188 c 893.293 485.477 893.164 485.773 893.031 486.07 c 894.484 486.953
 895.918 487.813 897.352 488.676 c 901.715 491.32 l 902.805 491.32 l 902.773
 490.582 902.742 489.934 902.723 489.379 c h
902.723 471.559 m f
0.74902 0 0 rg
917.965 240.352 m 918.77 239.668 919.418 238.871 919.902 237.969 c 920.406
 237.051 920.809 235.773 921.113 234.129 c 921.719 230.953 l 921.879 229.918
 922.082 228.988 922.324 228.172 c 922.566 227.379 922.848 226.738 923.172
 226.277 c 923.496 225.801 923.859 225.449 924.262 225.219 c 924.688 224.977
 925.293 224.789 926.078 224.645 c 925.836 223.277 l 918.852 223.277 l 918.305
 224.918 917.82 226.871 917.398 229.145 c 916.309 234.969 l 916.117 235.961
 915.883 236.797 915.621 237.48 c 915.379 238.188 915.066 238.73 914.691
 239.113 c 914.34 239.488 913.926 239.742 913.441 239.863 c 912.957 239.977
 912.359 240.043 911.664 240.043 c 908.797 240.043 l 907.02 231.305 l 906.879
 230.602 906.777 230.027 906.695 229.586 c 906.637 229.168 906.586 228.727
 906.535 228.262 c 906.504 227.789 906.496 227.355 906.496 226.98 c 906.496
 226.418 906.574 225.977 906.738 225.66 c 906.918 225.328 907.184 225.098
 907.504 224.953 c 907.848 224.797 908.434 224.699 909.242 224.645 c 909
 223.277 l 898.621 223.277 l 898.902 224.645 l 899.52 224.73 899.992 224.887
 900.316 225.129 c 900.641 225.395 900.902 225.746 901.125 226.188 c 901.336
 226.629 901.539 227.16 901.73 227.777 c 901.91 228.418 902.195 229.652 
902.578 231.48 c 906.859 252.746 l 907.23 254.566 907.426 256.012 907.426
 257.07 c 907.426 257.977 907.223 258.613 906.816 258.969 c 906.434 259.32
 905.82 259.52 904.961 259.586 c 905.203 260.91 l 916.469 260.91 l 918.246
 260.91 919.699 260.789 920.832 260.555 c 921.961 260.348 922.91 260.004
 923.699 259.543 c 924.504 259.066 925.172 258.461 925.715 257.73 c 926.25
 257.027 926.656 256.211 926.93 255.305 c 927.191 254.391 927.332 253.418
 927.332 252.395 c 927.332 249.57 926.535 247.156 924.949 245.16 c 923.355
 243.184 921.031 241.684 917.965 240.66 c h
912.27 242.422 m 914.691 242.422 916.602 242.777 918.004 243.48 c 919.426
 244.211 920.559 245.391 921.395 247.012 c 922.223 248.656 922.648 250.418
 922.648 252.305 c 922.648 253.102 922.578 253.805 922.445 254.422 c 922.305
 255.043 922.121 255.539 921.879 255.922 c 921.656 256.332 921.375 256.695
 921.031 257.027 c 920.711 257.348 920.285 257.609 919.781 257.82 c 919.297
 258.051 918.711 258.219 918.043 258.305 c 917.398 258.418 916.488 258.48
 915.34 258.48 c 914.449 258.48 913.5 258.449 912.512 258.395 c 909.281 
242.422 l h
912.27 242.422 m f
941.02 214.551 m 941.555 214.551 941.988 214.563 942.313 214.594 c 942.656
 214.648 942.938 214.75 943.16 214.902 c 943.371 215.078 943.543 215.313
 943.688 215.609 c 943.848 215.93 944.027 216.371 944.25 216.934 c 945.867
 216.934 l 945.805 216.016 945.754 215.09 945.703 214.152 c 945.645 213.238
 945.594 212.32 945.543 211.418 c 930.602 211.418 l 930.602 212.434 l 930.863
 213.105 931.188 213.777 931.57 214.461 c 931.945 215.133 932.359 215.828
 932.824 216.535 c 933.309 217.242 933.844 217.957 934.438 218.695 c 935.055
 219.426 935.73 220.195 936.457 220.992 c 937.559 222.191 938.457 223.219
 939.164 224.078 c 939.859 224.93 940.395 225.691 940.777 226.375 c 941.184
 227.047 941.445 227.664 941.586 228.227 c 941.746 228.777 941.828 229.383
 941.828 230.035 c 941.828 230.707 941.746 231.316 941.586 231.844 c 941.426
 232.395 941.184 232.871 940.859 233.254 c 940.535 233.629 940.133 233.93
 939.648 234.137 c 939.164 234.371 938.598 234.492 937.953 234.492 c 936.84
 234.492 935.914 234.16 935.164 233.52 c 934.438 232.871 933.875 231.934
 933.469 230.695 c 931.168 230.695 l 931.168 234.445 l 932.672 235.152 934.055
 235.648 935.328 235.945 c 936.59 236.266 937.719 236.434 938.719 236.434
 c 939.949 236.434 941 236.266 941.867 235.945 c 942.727 235.648 943.422
 235.242 943.969 234.711 c 944.504 234.203 944.898 233.586 945.141 232.859
 c 945.383 232.152 945.504 231.379 945.504 230.566 c 945.504 230.059 945.461
 229.594 945.383 229.152 c 945.32 228.711 945.219 228.281 945.059 227.875
 c 944.918 227.453 944.715 227.035 944.453 226.594 c 944.18 226.176 943.859
 225.734 943.484 225.27 c 943.18 224.852 942.797 224.367 942.313 223.816
 c 941.848 223.285 941.344 222.711 940.777 222.094 c 939 220.152 l 938.406
 219.469 937.809 218.809 937.227 218.168 c 936.66 217.516 936.133 216.887
 935.648 216.27 c 935.164 215.652 934.773 215.078 934.48 214.551 c h
941.02 214.551 m f
0 g
440.461 295.977 m 446.707 290.055 l 446.707 288.477 l 440.461 282.543 l
 439.117 284.176 l 443.125 287.957 l 418.574 287.957 l 418.574 290.527 l
 443.125 290.527 l 439.117 294.344 l h
440.461 295.977 m f*
427.531 278.555 m 427.25 277.23 l 426.523 277.109 425.938 276.855 425.512
 276.48 c 425.109 276.098 424.824 275.555 424.664 274.852 c 424.504 274.168
 424.422 273.262 424.422 272.113 c 424.422 271.852 424.434 271.023 424.461
 269.645 c 425.191 249.438 l 425.191 247.23 l 425.434 247.23 l 436.375 268.762
 l 437.02 270.02 437.484 271.109 437.789 272.027 c 438.113 272.93 438.273
 273.746 438.273 274.453 c 438.273 276.008 437.434 276.934 435.77 277.23
 c 436.051 278.555 l 446.348 278.555 l 446.066 277.23 l 445.633 277.145 
445.199 276.934 444.773 276.613 c 444.371 276.316 443.906 275.82 443.402
 275.113 c 442.887 274.41 442.09 273.051 441.02 271.055 c 424.867 240.48
 l 421.516 240.48 l 419.82 271.23 l 419.738 272.434 419.598 273.461 419.414
 274.32 c 419.254 275.168 418.98 275.832 418.609 276.305 c 418.223 276.77
 417.617 277.078 416.789 277.23 c 417.074 278.555 l h
427.531 278.555 m f
0.74902 0 0 rg
300.723 160.988 m 307 155.066 l 307 153.477 l 300.723 147.555 l 299.398
 149.188 l 303.387 153.004 l 235.438 153.004 l 235.438 155.539 l 303.387
 155.539 l 299.398 159.355 l h
300.723 160.988 m f*
248.953 143.422 m 248.668 142.098 l 247.941 141.977 247.355 141.723 246.934
 141.348 c 246.527 140.961 246.246 140.422 246.086 139.715 c 245.922 139.031
 245.844 138.129 245.844 136.98 c 245.844 136.715 245.852 135.887 245.883
 134.508 c 246.609 114.305 l 246.609 112.098 l 246.852 112.098 l 257.797
 133.629 l 258.441 134.883 258.906 135.977 259.207 136.891 c 259.531 137.797
 259.691 138.613 259.691 139.32 c 259.691 140.875 258.855 141.801 257.191
 142.098 c 257.473 143.422 l 267.77 143.422 l 267.488 142.098 l 267.051 
142.008 266.617 141.801 266.195 141.48 c 265.789 141.184 265.328 140.688
 264.82 139.98 c 264.309 139.273 263.508 137.918 262.438 135.922 c 246.285
 105.348 l 242.934 105.348 l 241.238 136.098 l 241.16 137.301 241.016 138.324
 240.836 139.188 c 240.676 140.035 240.402 140.695 240.027 141.172 c 239.645
 141.633 239.039 141.945 238.211 142.098 c 238.492 143.422 l h
248.953 143.422 m f
270.668 104.855 m 270.527 104.172 270.387 103.445 270.223 102.648 c 270.063
 101.879 269.902 101.117 269.738 100.355 c 269.578 99.617 269.438 98.922
 269.336 98.281 c 269.227 97.633 269.176 97.102 269.176 96.695 c 269.176
 96.43 269.195 96.188 269.254 95.988 c 269.305 95.813 269.398 95.656 269.539
 95.547 c 269.699 95.426 269.902 95.336 270.145 95.281 c 270.406 95.215 
270.73 95.172 271.113 95.148 c 270.91 93.957 l 263.359 93.957 l 263.563 
95.148 l 263.906 95.203 264.188 95.281 264.41 95.371 c 264.652 95.457 264.863
 95.637 265.055 95.898 c 265.238 96.188 265.398 96.617 265.539 97.18 c 265.703
 97.73 265.883 98.512 266.105 99.516 c 268.973 113.59 l 269.105 114.141 
269.195 114.648 269.254 115.09 c 269.305 115.531 269.336 115.887 269.336
 116.148 c 269.336 116.734 269.195 117.141 268.934 117.387 c 268.691 117.617
 268.184 117.75 267.438 117.781 c 267.723 118.973 l 275.836 118.973 l 277.391
 118.973 278.684 118.82 279.715 118.531 c 280.766 118.234 281.59 117.824
 282.219 117.297 c 282.832 116.789 283.266 116.195 283.512 115.488 c 283.773
 114.781 283.914 114.012 283.914 113.195 c 283.914 111.273 283.367 109.676
 282.297 108.387 c 281.25 107.117 279.633 106.156 277.453 105.516 c 277.453
 105.254 l 277.988 104.832 278.422 104.324 278.746 103.707 c 279.09 103.09
 279.391 102.262 279.633 101.238 c 279.926 100.023 280.16 99.043 280.32 
98.281 c 280.5 97.543 280.723 96.957 280.965 96.516 c 281.207 96.098 281.512
 95.789 281.895 95.59 c 282.27 95.383 282.762 95.238 283.391 95.148 c 283.145
 93.957 l 278.02 93.957 l 277.797 94.453 277.582 95.074 277.371 95.813 c
 277.18 96.539 277.02 97.246 276.887 97.93 c 276.645 98.953 276.441 99.836
 276.281 100.574 c 276.121 101.305 275.957 101.922 275.797 102.43 c 275.656
 102.957 275.496 103.367 275.313 103.664 c 275.152 103.949 274.961 104.195
 274.746 104.371 c 274.523 104.547 274.262 104.656 273.941 104.723 c 273.617
 104.777 273.223 104.824 272.77 104.855 c h
273.133 106.797 m 275.473 106.797 277.262 107.305 278.504 108.34 c 279.766
 109.398 280.402 110.988 280.402 113.105 c 280.402 113.813 280.289 114.395
 280.078 114.871 c 279.887 115.367 279.574 115.762 279.148 116.063 c 278.746
 116.383 278.199 116.602 277.535 116.723 c 276.887 116.867 276.102 116.945
 275.191 116.945 c 274.887 116.945 274.555 116.922 274.184 116.898 c 273.133
 116.898 l 271.031 106.797 l h
273.133 106.797 m f
298.184 88.137 m 298.688 88.137 299.082 88.16 299.355 88.227 c 299.648 
88.281 299.879 88.371 300.043 88.492 c 300.203 88.602 300.336 88.758 300.445
 88.934 c 300.547 89.109 300.707 89.484 300.93 90.078 c 302.465 90.078 l
 302.141 85.402 l 289.18 85.402 l 289.18 86.328 l 289.684 87.5 290.371 88.645
 291.238 89.77 c 292.098 90.918 293.098 92.109 294.227 93.344 c 295.602 
94.758 296.57 95.824 297.133 96.566 c 297.719 97.293 298.152 97.988 298.426
 98.637 c 298.688 99.313 298.832 99.973 298.832 100.625 c 298.832 101.703
 298.547 102.566 297.98 103.184 c 297.418 103.82 296.609 104.152 295.559
 104.152 c 294.641 104.152 293.863 103.887 293.219 103.359 c 292.57 102.828
 292.086 102.047 291.762 101.02 c 289.664 101.02 l 289.664 104.285 l 290.957
 104.836 292.148 105.234 293.258 105.477 c 294.387 105.742 295.367 105.875
 296.207 105.875 c 297.387 105.875 298.355 105.742 299.113 105.477 c 299.859
 105.211 300.465 104.859 300.93 104.418 c 301.383 103.977 301.699 103.445
 301.859 102.828 c 302.039 102.234 302.141 101.637 302.141 101.02 c 302.141
 100.227 301.988 99.488 301.699 98.816 c 301.426 98.133 300.949 97.383 300.285
 96.566 c 299.609 95.77 298.406 94.512 296.691 92.816 c 294.883 91.016 293.563
 89.461 292.734 88.137 c h
298.184 88.137 m f
0.317647 0.498039 0.2 rg
590.172 416.805 m 596.449 410.902 l 596.449 409.316 l 590.172 403.395 l
 588.848 405.023 l 592.836 408.809 l 524.887 408.809 l 524.887 411.379 l
 592.836 411.379 l 588.848 415.16 l h
590.172 416.805 m f*
538.531 399.516 m 538.246 398.191 l 537.52 398.07 536.934 397.816 536.512
 397.441 c 536.105 397.055 535.824 396.516 535.664 395.809 c 535.5 395.125
 535.422 394.223 535.422 393.074 c 535.422 392.809 535.43 391.984 535.461
 390.605 c 536.188 370.398 l 536.188 368.191 l 536.43 368.191 l 547.375 
389.723 l 548.02 390.98 548.484 392.07 548.785 392.988 c 549.109 393.891
 549.27 394.707 549.27 395.414 c 549.27 396.969 548.434 397.895 546.77 398.191
 c 547.051 399.516 l 557.348 399.516 l 557.066 398.191 l 556.629 398.105
 556.195 397.895 555.773 397.574 c 555.367 397.277 554.906 396.781 554.398
 396.074 c 553.887 395.367 553.086 394.012 552.016 392.016 c 535.863 361.441
 l 532.512 361.441 l 530.816 392.191 l 530.738 393.395 530.594 394.422 530.414
 395.281 c 530.254 396.129 529.98 396.793 529.605 397.266 c 529.223 397.73
 528.617 398.039 527.789 398.191 c 528.07 399.516 l h
538.531 399.516 m f
560.324 360.922 m 560.184 360.238 560.043 359.512 559.879 358.715 c 559.719
 357.945 559.559 357.184 559.395 356.422 c 559.234 355.684 559.094 354.988
 558.992 354.348 c 558.879 353.699 558.832 353.168 558.832 352.762 c 558.832
 352.496 558.852 352.254 558.91 352.055 c 558.961 351.879 559.051 351.723
 559.195 351.613 c 559.355 351.492 559.559 351.402 559.801 351.348 c 560.063
 351.281 560.387 351.238 560.77 351.215 c 560.566 350.023 l 553.016 350.023
 l 553.219 351.215 l 553.563 351.27 553.844 351.348 554.066 351.438 c 554.309
 351.523 554.52 351.703 554.711 351.965 c 554.895 352.254 555.055 352.684
 555.195 353.246 c 555.359 353.797 555.539 354.578 555.762 355.582 c 558.629
 369.656 l 558.758 370.207 558.852 370.715 558.91 371.156 c 558.961 371.598
 558.992 371.953 558.992 372.215 c 558.992 372.801 558.852 373.207 558.59
 373.453 c 558.344 373.684 557.84 373.816 557.094 373.848 c 557.375 375.039
 l 565.492 375.039 l 567.047 375.039 568.34 374.887 569.371 374.598 c 570.418
 374.301 571.246 373.891 571.875 373.363 c 572.488 372.855 572.922 372.262
 573.164 371.555 c 573.43 370.848 573.57 370.078 573.57 369.262 c 573.57
 367.34 573.023 365.742 571.953 364.453 c 570.902 363.184 569.289 362.223
 567.109 361.582 c 567.109 361.32 l 567.645 360.898 568.078 360.391 568.402
 359.773 c 568.742 359.156 569.047 358.328 569.289 357.305 c 569.582 356.09
 569.813 355.109 569.977 354.348 c 570.156 353.609 570.379 353.023 570.621
 352.582 c 570.863 352.164 571.168 351.855 571.551 351.656 c 571.922 351.449
 572.418 351.305 573.043 351.215 c 572.801 350.023 l 567.672 350.023 l 567.453
 350.52 567.238 351.141 567.027 351.879 c 566.836 352.605 566.676 353.313
 566.543 353.996 c 566.301 355.02 566.098 355.902 565.938 356.641 c 565.777
 357.371 565.613 357.988 565.453 358.496 c 565.313 359.023 565.148 359.434
 564.969 359.73 c 564.805 360.016 564.613 360.262 564.402 360.438 c 564.18
 360.613 563.918 360.723 563.594 360.789 c 563.273 360.844 562.879 360.891
 562.426 360.922 c h
562.789 362.863 m 565.129 362.863 566.918 363.371 568.156 364.406 c 569.422
 365.465 570.055 367.055 570.055 369.172 c 570.055 369.879 569.945 370.461
 569.734 370.938 c 569.543 371.434 569.227 371.828 568.805 372.129 c 568.402
 372.449 567.855 372.668 567.188 372.789 c 566.543 372.934 565.754 373.012
 564.848 373.012 c 564.543 373.012 564.211 372.988 563.836 372.965 c 562.789
 372.965 l 560.688 362.863 l h
562.789 362.863 m f
588.055 345.906 m 588.055 345.199 588.105 344.691 588.219 344.406 c 588.32
 344.109 588.5 343.875 588.742 343.699 c 588.984 343.523 589.398 343.391
 589.996 343.305 c 590.578 343.215 591.508 343.148 592.781 343.125 c 592.781
 341.582 l 580.223 341.582 l 580.223 343.125 l 581.453 343.148 582.363 343.215
 582.93 343.305 c 583.492 343.391 583.906 343.523 584.18 343.699 c 584.441
 343.875 584.645 344.109 584.785 344.406 c 584.918 344.691 584.988 345.199
 584.988 345.906 c 584.988 356.848 l 584.988 357.254 584.906 357.555 584.746
 357.73 c 584.605 357.906 584.402 357.996 584.141 357.996 c 583.816 357.996
 583.332 357.797 582.688 357.422 c 582.039 357.066 581.211 356.551 580.223
 355.875 c 579.414 357.555 l 587.168 361.922 l 588.137 361.922 l 588.137
 361.68 588.117 361.105 588.098 360.199 c 588.066 359.316 588.055 358.434
 588.055 357.555 c h
588.055 345.906 m f
Q Q
showpage
%%Trailer
end restore
%%EOF
